com\ToDoList\ToDoList\model\ItemStatus.class
com\ToDoList\ToDoList\controller\ItemController.class
com\ToDoList\ToDoList\config\SecurityConfiguration.class
com\ToDoList\ToDoList\services\ItemGroupService.class
com\ToDoList\ToDoList\controller\dtos\ResponseUtils.class
com\ToDoList\ToDoList\config\ErrorMessage.class
com\ToDoList\ToDoList\config\SecurityConfiguration$1.class
com\ToDoList\ToDoList\controller\dtos\ResponseItemDto.class
com\ToDoList\ToDoList\repositories\ItemGroupRepository.class
com\ToDoList\ToDoList\model\Item.class
com\ToDoList\ToDoList\model\ItemGroup.class
com\ToDoList\ToDoList\controller\HelloWorld.class
com\ToDoList\ToDoList\repositories\ItemRepository.class
com\ToDoList\ToDoList\controller\dtos\RequestItemDto.class
com\ToDoList\ToDoList\controller\dtos\ResponseItemGroupDto.class
com\ToDoList\ToDoList\ToDoListApplication.class
com\ToDoList\ToDoList\config\ExceptionControllerAdvice.class
com\ToDoList\ToDoList\services\ItemGroupServiceImplementation.class
com\ToDoList\ToDoList\controller\ItemGroupController.class
com\ToDoList\ToDoList\exceptions\ResourceNotFoundException.class
com\ToDoList\ToDoList\controller\dtos\RequestItemGroupDto.class
com\ToDoList\ToDoList\controller\dtos\RequestUtils.class
com\ToDoList\ToDoList\services\ItemServiceImplementation.class
com\ToDoList\ToDoList\services\ItemService.class
